{
	"Musicians":[
		{
			"name": "Ludwig van Beethoven",
			"year": "[1770–1827]",
			"details": "Ludwig van Beethoven was a German composer and pianist. Beethoven remains one of the most admired composers in the history of Western music; his works rank amongst the most performed of the classical music repertoire and span the transition from the Classical period to the Romantic era in classical music. Overcoming many health-related obstacles like gradual deafness, he became known for his wonderful works like the song, Fur Elise.",
			"img_src": "https://images.app.goo.gl/PLuastPW7SMJou4P8"
		}
	]
}